	<table cellpadding="0" cellspacing="0" class="m_-76039934011966351cke_show_border" style="border:none;color:rgb(
			0,0,0);font-family:Helvetica,arial,sans-serif;font-size:13px;text-align:justify">
		<tbody>
			<tr>
				<td class="m_-76039934011966351fontincrease">
				<b>
				 <br>#$pid$- $company$ $title$
				</b>
				</td>
			</tr>
		</tbody>
	</table>
	<table cellpadding="0" cellspacing="0" class="m_-76039934011966351cke_show_border" style="border:none;font-family:Helvetica,arial,sans-serif;font-size:13px;text-align:justify">
		<tbody>
			<tr><td style="align:left;font-family:Microsoft YaHei;font-size:10pt">相关经历:</td></tr>
			<tr>
				<td style="align:left;font-family:Microsoft YaHei;font-size:10pt">	
				 	$re$
				</td>
			</tr>
		</tbody>
	</table>
	<table style="align:left;font-family:Microsoft YaHei;font-size:10pt;border-collapse:separate; border-spacing:0px 10px;">
		<tbody>
			$workexp$
		</tbody>
	</table>
